[
    [
        [
            0.5,
            0.5
        ],
        [
            0.55,
            0.5
        ],
        [
            0.55,
            0.45
        ],
        [
            0.45,
            0.45
        ],
        [
            0.45,
            0.6
        ],
        [
            0.65,
            0.6
        ],
        [
            0.65,
            0.35
        ],
        [
            0.35,
            0.35
        ],
        [
            0.35,
            0.7
        ],
        [
            0.75,
            0.7
        ],
        [
            0.75,
            0.25
        ],
        [
            0.25,
            0.25
        ],
        [
            0.25,
            0.8
        ],
        [
            0.85,
            0.8
        ],
        [
            0.85,
            0.2
        ],
        [
            0.9,
            0.2
        ],
        [
            0.9,
            0.85
        ],
        [
            0.2,
            0.85
        ],
        [
            0.2,
            0.2
        ],
        [
            0.8,
            0.2
        ],
        [
            0.8,
            0.75
        ],
        [
            0.3,
            0.75
        ],
        [
            0.3,
            0.3
        ],
        [
            0.7,
            0.3
        ],
        [
            0.7,
            0.65
        ],
        [
            0.4,
            0.65
        ],
        [
            0.4,
            0.4
        ],
        [
            0.6,
            0.4
        ],
        [
            0.6,
            0.55
        ],
        [
            0.5,
            0.55
        ]
    ]
]
